EESchema Schematic File Version 2
LIBS:Nokia-LCB-5110-rescue
LIBS:power
LIBS:device
LIBS:transistors
LIBS:conn
LIBS:linear
LIBS:regul
LIBS:74xx
LIBS:cmos4000
LIBS:adc-dac
LIBS:memory
LIBS:xilinx
LIBS:microcontrollers
LIBS:dsp
LIBS:microchip
LIBS:analog_switches
LIBS:motorola
LIBS:texas
LIBS:intel
LIBS:audio
LIBS:interface
LIBS:digital-audio
LIBS:philips
LIBS:display
LIBS:cypress
LIBS:siliconi
LIBS:opto
LIBS:atmel
LIBS:contrib
LIBS:valves
LIBS:pic18f2550
LIBS:Nokia-LCB-5110-cache
EELAYER 25 0
EELAYER END
$Descr A4 11693 8268
encoding utf-8
Sheet 1 1
Title "Nokia-LCD-5110 Beakout"
Date "29 mar 2016"
Rev ""
Comp "Marco's DIY"
Comment1 ""
Comment2 ""
Comment3 ""
Comment4 ""
$EndDescr
$Comp
L PIC18F2550 U2
U 1 1 56FA7B3A
P 5600 3350
F 0 "U2" H 5600 5060 70  0000 C CNN
F 1 "PIC18F2550" H 5600 4939 70  0000 C CNN
F 2 "Housings_SOIC:SOIC-28_7.5x17.9mm_Pitch1.27mm" H 5600 3350 60  0001 C CNN
F 3 "" H 5600 3350 60  0000 C CNN
	1    5600 3350
	1    0    0    -1  
$EndComp
$Comp
L R R1
U 1 1 56FA7BBB
P 1200 6150
F 0 "R1" H 1130 6104 50  0000 R CNN
F 1 "10k" H 1130 6195 50  0000 R CNN
F 2 "Resistors_SMD:R_0805_HandSoldering" V 1130 6150 50  0001 C CNN
F 3 "" H 1200 6150 50  0000 C CNN
	1    1200 6150
	-1   0    0    1   
$EndComp
$Comp
L LED D1
U 1 1 56FA7D89
P 1500 6150
F 0 "D1" V 1546 6042 50  0000 R CNN
F 1 "LED" V 1455 6042 50  0000 R CNN
F 2 "LEDs:LED_0805" H 1500 6150 50  0001 C CNN
F 3 "" H 1500 6150 50  0000 C CNN
	1    1500 6150
	0    -1   -1   0   
$EndComp
Text Notes 1150 5150 0    60   ~ 0
uC Reset Circuit\n
$Comp
L SW_PUSH SW1
U 1 1 56FA816E
P 1200 6800
F 0 "SW1" V 1246 6746 50  0000 R CNN
F 1 "SW_PUSH" V 1155 6746 50  0000 R CNN
F 2 "Buttons_Switches_SMD:SW_SPST_FSMSM" H 1200 6800 50  0001 C CNN
F 3 "" H 1200 6800 50  0000 C CNN
	1    1200 6800
	0    -1   -1   0   
$EndComp
$Comp
L GND #PWR01
U 1 1 56FA8530
P 9750 2000
F 0 "#PWR01" H 9750 1750 50  0001 C CNN
F 1 "GND" H 9750 1850 50  0000 C CNN
F 2 "" H 9750 2000 50  0000 C CNN
F 3 "" H 9750 2000 50  0000 C CNN
	1    9750 2000
	1    0    0    -1  
$EndComp
$Comp
L R R2
U 1 1 56FA8B97
P 1500 5700
F 0 "R2" H 1430 5654 50  0000 R CNN
F 1 "680" H 1430 5745 50  0000 R CNN
F 2 "Resistors_SMD:R_0805_HandSoldering" V 1430 5700 50  0001 C CNN
F 3 "" H 1500 5700 50  0000 C CNN
	1    1500 5700
	-1   0    0    1   
$EndComp
Text Label 1350 6450 0    60   ~ 0
uC-Reset
Text Label 3700 1950 0    60   ~ 0
uC-Reset
$Comp
L CONN_01X08 P5
U 1 1 56FA9B1D
P 10300 1650
F 0 "P5" H 10377 1688 50  0000 L CNN
F 1 "CONN_01X08" H 10377 1597 50  0000 L CNN
F 2 "Socket_Strips:Socket_Strip_Straight_1x08" H 10300 1650 50  0001 C CNN
F 3 "" H 10300 1650 50  0000 C CNN
	1    10300 1650
	1    0    0    -1  
$EndComp
Text Label 9750 1300 0    60   ~ 0
RST
Text Label 9750 1400 0    60   ~ 0
CE
Text Label 9750 1500 0    60   ~ 0
DC
Text Label 9750 1600 0    60   ~ 0
DIN
Text Label 9750 1700 0    60   ~ 0
CLK
Text Label 9750 1800 0    60   ~ 0
VCC
Text Label 9750 1900 0    60   ~ 0
LED
Text Label 9750 2000 0    60   ~ 0
GND
$Comp
L +3V3 #PWR02
U 1 1 56FAA15F
P 9650 1800
F 0 "#PWR02" H 9650 1650 50  0001 C CNN
F 1 "+3V3" V 9668 1927 50  0000 L CNN
F 2 "" H 9650 1800 50  0000 C CNN
F 3 "" H 9650 1800 50  0000 C CNN
	1    9650 1800
	0    -1   -1   0   
$EndComp
$Comp
L R R4
U 1 1 56FAA1F8
P 9450 2150
F 0 "R4" H 9520 2196 50  0000 L CNN
F 1 "680" H 9520 2105 50  0000 L CNN
F 2 "Resistors_SMD:R_0805_HandSoldering" V 9380 2150 50  0001 C CNN
F 3 "" H 9450 2150 50  0000 C CNN
	1    9450 2150
	1    0    0    -1  
$EndComp
$Comp
L +3V3 #PWR03
U 1 1 56FAA263
P 9450 2400
F 0 "#PWR03" H 9450 2250 50  0001 C CNN
F 1 "+3V3" H 9450 2600 50  0000 C CNN
F 2 "" H 9450 2400 50  0000 C CNN
F 3 "" H 9450 2400 50  0000 C CNN
	1    9450 2400
	-1   0    0    1   
$EndComp
Wire Wire Line
	1200 6300 1200 6500
Wire Wire Line
	1200 7100 1200 7100
Wire Wire Line
	1500 6350 1500 6450
Wire Wire Line
	1500 6450 1200 6450
Connection ~ 1200 6450
Wire Wire Line
	1500 5850 1500 5950
Wire Wire Line
	1500 5550 1200 5550
Wire Wire Line
	1200 5500 1200 6000
Connection ~ 1200 5550
Wire Wire Line
	4200 1950 3700 1950
Wire Wire Line
	10100 1300 9750 1300
Wire Wire Line
	10100 1400 9750 1400
Wire Wire Line
	10100 1500 9750 1500
Wire Wire Line
	10100 1600 9750 1600
Wire Wire Line
	10100 1700 9750 1700
Wire Wire Line
	9650 1800 10100 1800
Wire Wire Line
	9750 2000 10100 2000
Wire Wire Line
	9450 1900 9450 2000
Wire Wire Line
	9450 2400 9450 2300
Wire Wire Line
	10100 1900 9450 1900
$Comp
L LT1129MPST-3.3 U1
U 1 1 56FAA859
P 9350 5750
F 0 "U1" H 9350 6158 50  0000 C CNN
F 1 "LT1129MPST-3.3" H 9350 6067 50  0000 C CNN
F 2 "TO_SOT_Packages_SMD:SOT-223" H 9350 5976 50  0000 C CIN
F 3 "" H 9350 5750 50  0000 C CNN
	1    9350 5750
	1    0    0    -1  
$EndComp
Text Notes 9050 5150 0    60   ~ 0
DC-DC Regulators\n5V - 3V3\n
$Comp
L USB_OTG P4
U 1 1 56FAACF1
P 5500 6800
F 0 "P4" V 5527 6993 50  0000 L CNN
F 1 "USB_OTG" V 5618 6993 50  0000 L CNN
F 2 "Connect:USB_Mini-B" V 5450 6700 50  0001 C CNN
F 3 "" V 5450 6700 50  0000 C CNN
	1    5500 6800
	0    1    1    0   
$EndComp
$Comp
L GND #PWR04
U 1 1 56FAB0BF
P 4900 7050
F 0 "#PWR04" H 4900 6800 50  0001 C CNN
F 1 "GND" H 4900 6900 50  0000 C CNN
F 2 "" H 4900 7050 50  0000 C CNN
F 3 "" H 4900 7050 50  0000 C CNN
	1    4900 7050
	1    0    0    -1  
$EndComp
Wire Wire Line
	5200 7000 4900 7000
Wire Wire Line
	4900 7000 4900 7050
Wire Wire Line
	5200 6600 4900 6600
Wire Wire Line
	4900 6600 4900 6550
$Comp
L GND #PWR05
U 1 1 56FAB1FD
P 5600 7200
F 0 "#PWR05" H 5600 6950 50  0001 C CNN
F 1 "GND" H 5600 7050 50  0000 C CNN
F 2 "" H 5600 7200 50  0000 C CNN
F 3 "" H 5600 7200 50  0000 C CNN
	1    5600 7200
	1    0    0    -1  
$EndComp
Wire Wire Line
	5200 6700 4900 6700
Wire Wire Line
	5200 6800 4900 6800
NoConn ~ 5200 6900
Text Label 4900 6700 0    60   ~ 0
D-
Text Label 4900 6800 0    60   ~ 0
D+
Text Notes 5400 6350 0    60   ~ 0
USB\n
Wire Wire Line
	8900 5700 8700 5700
Wire Wire Line
	8700 5650 8700 5750
$Comp
L GND #PWR06
U 1 1 56FABA5B
P 9350 6150
F 0 "#PWR06" H 9350 5900 50  0001 C CNN
F 1 "GND" H 9350 6000 50  0000 C CNN
F 2 "" H 9350 6150 50  0000 C CNN
F 3 "" H 9350 6150 50  0000 C CNN
	1    9350 6150
	1    0    0    -1  
$EndComp
Wire Wire Line
	9350 6050 9350 6150
$Comp
L +3V3 #PWR07
U 1 1 56FABB8B
P 10050 5650
F 0 "#PWR07" H 10050 5500 50  0001 C CNN
F 1 "+3V3" H 10050 5850 50  0000 C CNN
F 2 "" H 10050 5650 50  0000 C CNN
F 3 "" H 10050 5650 50  0000 C CNN
	1    10050 5650
	1    0    0    -1  
$EndComp
Wire Wire Line
	9800 5700 10050 5700
Wire Wire Line
	10050 5650 10050 5750
$Comp
L GND #PWR08
U 1 1 56FABD2A
P 3600 6550
F 0 "#PWR08" H 3600 6300 50  0001 C CNN
F 1 "GND" H 3600 6400 50  0000 C CNN
F 2 "" H 3600 6550 50  0000 C CNN
F 3 "" H 3600 6550 50  0000 C CNN
	1    3600 6550
	1    0    0    -1  
$EndComp
$Comp
L +3V3 #PWR09
U 1 1 56FABD82
P 3600 6350
F 0 "#PWR09" H 3600 6200 50  0001 C CNN
F 1 "+3V3" H 3600 6550 50  0000 C CNN
F 2 "" H 3600 6350 50  0000 C CNN
F 3 "" H 3600 6350 50  0000 C CNN
	1    3600 6350
	1    0    0    -1  
$EndComp
Wire Wire Line
	3350 6350 3600 6350
Wire Wire Line
	3350 6450 3600 6450
Wire Wire Line
	3600 6450 3600 6550
$Comp
L CONN_01X02 P3
U 1 1 56FAC5C7
P 3150 7200
F 0 "P3" H 3069 6919 50  0000 C CNN
F 1 "CONN_01X02" H 3069 7010 50  0000 C CNN
F 2 "Connectors_JST:JST_EH_B02B-EH-A_02x2.50mm_Straight" H 3150 7200 50  0001 C CNN
F 3 "" H 3150 7200 50  0000 C CNN
	1    3150 7200
	-1   0    0    1   
$EndComp
$Comp
L GND #PWR010
U 1 1 56FAC6D7
P 3600 7350
F 0 "#PWR010" H 3600 7100 50  0001 C CNN
F 1 "GND" H 3600 7200 50  0000 C CNN
F 2 "" H 3600 7350 50  0000 C CNN
F 3 "" H 3600 7350 50  0000 C CNN
	1    3600 7350
	1    0    0    -1  
$EndComp
Wire Wire Line
	3600 7350 3600 7250
Wire Wire Line
	3600 7250 3350 7250
Wire Wire Line
	3350 7150 3600 7150
Wire Wire Line
	3600 7150 3600 7100
Text Notes 2900 7250 0    60   ~ 0
5V\n
Text Notes 2850 6450 0    60   ~ 0
3V3\n
$Comp
L GND #PWR011
U 1 1 56FACFA5
P 1200 7200
F 0 "#PWR011" H 1200 6950 50  0001 C CNN
F 1 "GND" H 1200 7050 50  0000 C CNN
F 2 "" H 1200 7200 50  0000 C CNN
F 3 "" H 1200 7200 50  0000 C CNN
	1    1200 7200
	1    0    0    -1  
$EndComp
Wire Wire Line
	1200 7100 1200 7200
$Comp
L CP1 C4
U 1 1 56FAD0FA
P 10050 5900
F 0 "C4" H 10165 5946 50  0000 L CNN
F 1 "3.3uF" H 10165 5855 50  0000 L CNN
F 2 "Capacitors_SMD:C_1206" H 10050 5900 50  0001 C CNN
F 3 "" H 10050 5900 50  0000 C CNN
	1    10050 5900
	1    0    0    -1  
$EndComp
Wire Wire Line
	10050 6100 10050 6050
Wire Wire Line
	8700 6100 10050 6100
Connection ~ 10050 5700
Connection ~ 9350 6100
$Comp
L CP1 C3
U 1 1 56FAD3AD
P 8700 5900
F 0 "C3" H 8815 5946 50  0000 L CNN
F 1 "10uF" H 8815 5855 50  0000 L CNN
F 2 "Capacitors_SMD:C_1206" H 8700 5900 50  0001 C CNN
F 3 "" H 8700 5900 50  0000 C CNN
	1    8700 5900
	1    0    0    -1  
$EndComp
Connection ~ 8700 5700
Wire Wire Line
	8700 6050 8700 6100
Wire Wire Line
	3700 2150 4200 2150
Wire Wire Line
	4200 2350 3700 2350
Wire Wire Line
	4200 2550 3700 2550
Wire Wire Line
	4200 2750 3700 2750
Wire Wire Line
	4200 2950 3700 2950
Wire Wire Line
	4200 3150 3700 3150
Wire Wire Line
	4200 3950 3700 3950
Wire Wire Line
	4200 4150 3700 4150
Wire Wire Line
	4200 4350 3700 4350
Wire Wire Line
	7000 4550 7500 4550
Wire Wire Line
	7000 4350 7500 4350
Wire Wire Line
	7000 3150 7500 3150
Wire Wire Line
	7000 3550 7100 3550
Wire Wire Line
	4100 4550 4200 4550
$Comp
L GND #PWR012
U 1 1 56FAE37A
P 7100 3750
F 0 "#PWR012" H 7100 3500 50  0001 C CNN
F 1 "GND" H 7100 3600 50  0000 C CNN
F 2 "" H 7100 3750 50  0000 C CNN
F 3 "" H 7100 3750 50  0000 C CNN
	1    7100 3750
	0    -1   -1   0   
$EndComp
Wire Wire Line
	7000 3750 7100 3750
Text Label 3700 2150 0    60   ~ 0
RA0/AN0
Text Label 3700 2350 0    60   ~ 0
RA1/AN1
Text Label 3700 2550 0    60   ~ 0
RA2/AN2
Text Label 3700 2750 0    60   ~ 0
RA3/AN3
Text Label 3700 2950 0    60   ~ 0
RA4
Text Label 3700 3150 0    60   ~ 0
RA5/AN4
$Comp
L GND #PWR013
U 1 1 56FAE64A
P 4100 3350
F 0 "#PWR013" H 4100 3100 50  0001 C CNN
F 1 "GND" H 4100 3200 50  0000 C CNN
F 2 "" H 4100 3350 50  0000 C CNN
F 3 "" H 4100 3350 50  0000 C CNN
	1    4100 3350
	0    1    1    0   
$EndComp
Wire Wire Line
	4200 3350 4100 3350
$Comp
L Crystal Y1
U 1 1 56FAE6E9
P 2850 3650
F 0 "Y1" V 2804 3781 50  0000 L CNN
F 1 "10MHz" V 2900 3800 50  0000 L CNN
F 2 "Crystals:Crystal_HC49-SD_SMD" H 2850 3650 50  0001 C CNN
F 3 "" H 2850 3650 50  0000 C CNN
	1    2850 3650
	0    1    1    0   
$EndComp
$Comp
L C C1
U 1 1 56FAEF3D
P 2550 3450
F 0 "C1" V 2298 3450 50  0000 C CNN
F 1 "18pF" V 2389 3450 50  0000 C CNN
F 2 "Capacitors_SMD:C_0805_HandSoldering" H 2588 3300 50  0001 C CNN
F 3 "" H 2550 3450 50  0000 C CNN
	1    2550 3450
	0    1    1    0   
$EndComp
$Comp
L C C2
U 1 1 56FAEFF4
P 2550 3850
F 0 "C2" V 2298 3850 50  0000 C CNN
F 1 "18pF" V 2389 3850 50  0000 C CNN
F 2 "Capacitors_SMD:C_0805_HandSoldering" H 2588 3700 50  0001 C CNN
F 3 "" H 2550 3850 50  0000 C CNN
	1    2550 3850
	0    1    1    0   
$EndComp
Wire Wire Line
	2350 3850 2400 3850
Wire Wire Line
	2350 3450 2350 3850
Wire Wire Line
	2350 3450 2400 3450
Wire Wire Line
	2700 3450 3100 3450
Wire Wire Line
	2850 3450 2850 3500
Wire Wire Line
	2700 3850 3100 3850
Wire Wire Line
	2850 3850 2850 3800
Wire Wire Line
	4200 3550 3100 3550
Wire Wire Line
	3100 3550 3100 3450
Connection ~ 2850 3450
Wire Wire Line
	4200 3750 3100 3750
Wire Wire Line
	3100 3750 3100 3850
Connection ~ 2850 3850
$Comp
L GND #PWR014
U 1 1 56FAF27C
P 2250 3650
F 0 "#PWR014" H 2250 3400 50  0001 C CNN
F 1 "GND" H 2250 3500 50  0000 C CNN
F 2 "" H 2250 3650 50  0000 C CNN
F 3 "" H 2250 3650 50  0000 C CNN
	1    2250 3650
	0    1    1    0   
$EndComp
Wire Wire Line
	2250 3650 2350 3650
Connection ~ 2350 3650
Text Notes 4750 6150 0    60   ~ 0
5V Power-Supply comes from USB\n
Text Label 3700 3950 0    60   ~ 0
RC0
Text Label 3700 4150 0    60   ~ 0
RC1
Text Label 3700 4350 0    60   ~ 0
RC2
Text Label 7400 4550 0    60   ~ 0
D-
Text Label 7400 4350 0    60   ~ 0
D+
$Comp
L CONN_01X02 P2
U 1 1 56FB221C
P 3150 6400
F 0 "P2" H 3069 6119 50  0000 C CNN
F 1 "CONN_01X02" H 3069 6210 50  0000 C CNN
F 2 "Connectors_JST:JST_EH_B02B-EH-A_02x2.50mm_Straight" H 3150 6400 50  0001 C CNN
F 3 "" H 3150 6400 50  0000 C CNN
	1    3150 6400
	-1   0    0    1   
$EndComp
Text Notes 9400 1000 0    60   ~ 0
LCD Nokia 5110 Expasion\n
Text Notes 9900 3300 0    60   ~ 0
uC Programmer\n
Text Label 7350 3150 0    60   ~ 0
CLK
Text Label 7350 3950 0    60   ~ 0
DIN
Wire Wire Line
	7000 3950 7500 3950
Wire Wire Line
	7000 4150 7500 4150
Text Label 7400 4150 0    60   ~ 0
DC
Wire Wire Line
	7500 3350 7000 3350
Text Label 7400 3350 0    60   ~ 0
CE
NoConn ~ 7000 2750
NoConn ~ 7000 2550
Wire Wire Line
	7000 2950 7500 2950
Text Label 7350 2950 0    60   ~ 0
RST
Text Label 1300 1750 0    60   ~ 0
RA0/AN0
Text Label 1300 1650 0    60   ~ 0
RA1/AN1
Text Label 1300 1550 0    60   ~ 0
RA2/AN2
Text Label 1300 1450 0    60   ~ 0
RA3/AN3
Text Label 1300 1350 0    60   ~ 0
RA4
Text Label 1300 1250 0    60   ~ 0
RA5/AN4
NoConn ~ 1450 1550
$Comp
L CONN_01X06 P1
U 1 1 56FB4580
P 1100 1500
F 0 "P1" H 1019 1019 50  0000 C CNN
F 1 "CONN_01X06" H 1019 1110 50  0000 C CNN
F 2 "Socket_Strips:Socket_Strip_Straight_1x06" H 1100 1500 50  0001 C CNN
F 3 "" H 1100 1500 50  0000 C CNN
	1    1100 1500
	-1   0    0    1   
$EndComp
Wire Wire Line
	1300 1750 1700 1750
Wire Wire Line
	1700 1650 1300 1650
Wire Wire Line
	1300 1550 1700 1550
Wire Wire Line
	1700 1450 1300 1450
Wire Wire Line
	1300 1350 1700 1350
Wire Wire Line
	1700 1250 1300 1250
Text Notes 1200 850  0    60   ~ 0
ADC lines\n
Wire Wire Line
	7000 1950 7500 1950
Wire Wire Line
	7000 2150 7500 2150
Text Label 7300 1950 0    60   ~ 0
PGD
Text Label 7300 2150 0    60   ~ 0
PGC
Text Label 9750 3800 0    60   ~ 0
PGD
Text Label 9750 3900 0    60   ~ 0
PGC
Wire Wire Line
	9750 3500 10200 3500
Wire Wire Line
	9550 3600 10200 3600
Wire Wire Line
	9550 3700 10200 3700
Wire Wire Line
	9750 3800 10200 3800
Wire Wire Line
	9750 3900 10200 3900
Text Label 9750 3500 0    60   ~ 0
uC-Reset
$Comp
L GND #PWR015
U 1 1 56FB5E5D
P 9550 3700
F 0 "#PWR015" H 9550 3450 50  0001 C CNN
F 1 "GND" H 9550 3550 50  0000 C CNN
F 2 "" H 9550 3700 50  0000 C CNN
F 3 "" H 9550 3700 50  0000 C CNN
	1    9550 3700
	0    1    1    0   
$EndComp
$Comp
L CONN_01X06 P6
U 1 1 56FB5F90
P 10400 3750
F 0 "P6" H 10477 3788 50  0000 L CNN
F 1 "CONN_01X06" H 10477 3697 50  0000 L CNN
F 2 "Pin_Headers:Pin_Header_Angled_1x06" H 10400 3750 50  0001 C CNN
F 3 "" H 10400 3750 50  0000 C CNN
	1    10400 3750
	1    0    0    -1  
$EndComp
Wire Wire Line
	10200 4000 9750 4000
Wire Wire Line
	7000 2350 7500 2350
Text Label 7300 2350 0    60   ~ 0
PGM
Text Label 9750 4000 0    60   ~ 0
PGM
$Comp
L R R5
U 1 1 56FB653C
P 10600 5400
F 0 "R5" H 10530 5354 50  0000 R CNN
F 1 "680" H 10530 5445 50  0000 R CNN
F 2 "Resistors_SMD:R_0805_HandSoldering" V 10530 5400 50  0001 C CNN
F 3 "" H 10600 5400 50  0000 C CNN
	1    10600 5400
	-1   0    0    1   
$EndComp
$Comp
L LED D3
U 1 1 56FB67D9
P 10600 5900
F 0 "D3" V 10646 5792 50  0000 R CNN
F 1 "LED" V 10555 5792 50  0000 R CNN
F 2 "LEDs:LED_0805" H 10600 5900 50  0001 C CNN
F 3 "" H 10600 5900 50  0000 C CNN
	1    10600 5900
	0    -1   -1   0   
$EndComp
$Comp
L +3V3 #PWR016
U 1 1 56FB69F5
P 10600 5150
F 0 "#PWR016" H 10600 5000 50  0001 C CNN
F 1 "+3V3" H 10600 5350 50  0000 C CNN
F 2 "" H 10600 5150 50  0000 C CNN
F 3 "" H 10600 5150 50  0000 C CNN
	1    10600 5150
	1    0    0    -1  
$EndComp
$Comp
L GND #PWR017
U 1 1 56FB6A3C
P 10600 6200
F 0 "#PWR017" H 10600 5950 50  0001 C CNN
F 1 "GND" H 10600 6050 50  0000 C CNN
F 2 "" H 10600 6200 50  0000 C CNN
F 3 "" H 10600 6200 50  0000 C CNN
	1    10600 6200
	1    0    0    -1  
$EndComp
Wire Wire Line
	10600 6100 10600 6200
Wire Wire Line
	10600 5700 10600 5550
Wire Wire Line
	10600 5250 10600 5150
$Comp
L R R3
U 1 1 56FB6E86
P 8200 5400
F 0 "R3" H 8130 5354 50  0000 R CNN
F 1 "680" H 8130 5445 50  0000 R CNN
F 2 "Resistors_SMD:R_0805_HandSoldering" V 8130 5400 50  0001 C CNN
F 3 "" H 8200 5400 50  0000 C CNN
	1    8200 5400
	-1   0    0    1   
$EndComp
$Comp
L LED D2
U 1 1 56FB6E8C
P 8200 5900
F 0 "D2" V 8246 5792 50  0000 R CNN
F 1 "LED" V 8155 5792 50  0000 R CNN
F 2 "LEDs:LED_0805" H 8200 5900 50  0001 C CNN
F 3 "" H 8200 5900 50  0000 C CNN
	1    8200 5900
	0    -1   -1   0   
$EndComp
$Comp
L GND #PWR018
U 1 1 56FB6E98
P 8200 6200
F 0 "#PWR018" H 8200 5950 50  0001 C CNN
F 1 "GND" H 8200 6050 50  0000 C CNN
F 2 "" H 8200 6200 50  0000 C CNN
F 3 "" H 8200 6200 50  0000 C CNN
	1    8200 6200
	1    0    0    -1  
$EndComp
Wire Wire Line
	8200 6100 8200 6200
Wire Wire Line
	8200 5700 8200 5550
Wire Wire Line
	8200 5100 8200 5250
$Comp
L +5V #PWR019
U 1 1 56FB9873
P 4900 6550
F 0 "#PWR019" H 4900 6400 50  0001 C CNN
F 1 "+5V" H 4918 6723 50  0000 C CNN
F 2 "" H 4900 6550 50  0000 C CNN
F 3 "" H 4900 6550 50  0000 C CNN
	1    4900 6550
	1    0    0    -1  
$EndComp
$Comp
L +5V #PWR020
U 1 1 56FB9A5E
P 3600 7100
F 0 "#PWR020" H 3600 6950 50  0001 C CNN
F 1 "+5V" H 3618 7273 50  0000 C CNN
F 2 "" H 3600 7100 50  0000 C CNN
F 3 "" H 3600 7100 50  0000 C CNN
	1    3600 7100
	1    0    0    -1  
$EndComp
$Comp
L +5V #PWR021
U 1 1 56FB9C42
P 1200 5500
F 0 "#PWR021" H 1200 5350 50  0001 C CNN
F 1 "+5V" H 1218 5673 50  0000 C CNN
F 2 "" H 1200 5500 50  0000 C CNN
F 3 "" H 1200 5500 50  0000 C CNN
	1    1200 5500
	1    0    0    -1  
$EndComp
$Comp
L +5V #PWR022
U 1 1 56FB9E5C
P 7100 3550
F 0 "#PWR022" H 7100 3400 50  0001 C CNN
F 1 "+5V" V 7118 3678 50  0000 L CNN
F 2 "" H 7100 3550 50  0000 C CNN
F 3 "" H 7100 3550 50  0000 C CNN
	1    7100 3550
	0    1    1    0   
$EndComp
$Comp
L +5V #PWR023
U 1 1 56FBA336
P 4100 4550
F 0 "#PWR023" H 4100 4400 50  0001 C CNN
F 1 "+5V" V 4118 4677 50  0000 L CNN
F 2 "" H 4100 4550 50  0000 C CNN
F 3 "" H 4100 4550 50  0000 C CNN
	1    4100 4550
	0    -1   -1   0   
$EndComp
$Comp
L +5V #PWR024
U 1 1 56FBA734
P 8200 5100
F 0 "#PWR024" H 8200 4950 50  0001 C CNN
F 1 "+5V" H 8218 5273 50  0000 C CNN
F 2 "" H 8200 5100 50  0000 C CNN
F 3 "" H 8200 5100 50  0000 C CNN
	1    8200 5100
	1    0    0    -1  
$EndComp
$Comp
L +5V #PWR025
U 1 1 56FBAB88
P 8700 5650
F 0 "#PWR025" H 8700 5500 50  0001 C CNN
F 1 "+5V" H 8718 5823 50  0000 C CNN
F 2 "" H 8700 5650 50  0000 C CNN
F 3 "" H 8700 5650 50  0000 C CNN
	1    8700 5650
	1    0    0    -1  
$EndComp
$Comp
L +5V #PWR026
U 1 1 56FBAC4E
P 9550 3600
F 0 "#PWR026" H 9550 3450 50  0001 C CNN
F 1 "+5V" V 9568 3727 50  0000 L CNN
F 2 "" H 9550 3600 50  0000 C CNN
F 3 "" H 9550 3600 50  0000 C CNN
	1    9550 3600
	0    -1   -1   0   
$EndComp
$EndSCHEMATC
