Warning[2073] C:\Documents and Settings\user\Desktop\PIC-LCD3310_test\Software\PIC-LCD3310_TEST_DEMO\main.c 54 : null-terminated initializer string too long
Warning[2073] C:\Documents and Settings\user\Desktop\PIC-LCD3310_test\Software\PIC-LCD3310_TEST_DEMO\main.c 54 : null-terminated initializer string too long
Warning[2073] C:\Documents and Settings\user\Desktop\PIC-LCD3310_test\Software\PIC-LCD3310_TEST_DEMO\main.c 54 : null-terminated initializer string too long
Warning[2073] C:\Documents and Settings\user\Desktop\PIC-LCD3310_test\Software\PIC-LCD3310_TEST_DEMO\main.c 54 : null-terminated initializer string too long
Warning[2054] C:\Documents and Settings\user\Desktop\PIC-LCD3310_test\Software\PIC-LCD3310_TEST_DEMO\main.c 204 : suspicious pointer conversion
Warning[2054] C:\Documents and Settings\user\Desktop\PIC-LCD3310_test\Software\PIC-LCD3310_TEST_DEMO\main.c 210 : suspicious pointer conversion
Warning[2054] C:\Documents and Settings\user\Desktop\PIC-LCD3310_test\Software\PIC-LCD3310_TEST_DEMO\main.c 213 : suspicious pointer conversion
Warning[2054] C:\Documents and Settings\user\Desktop\PIC-LCD3310_test\Software\PIC-LCD3310_TEST_DEMO\main.c 217 : suspicious pointer conversion
Warning[2054] C:\Documents and Settings\user\Desktop\PIC-LCD3310_test\Software\PIC-LCD3310_TEST_DEMO\main.c 219 : suspicious pointer conversion
Warning[2054] C:\Documents and Settings\user\Desktop\PIC-LCD3310_test\Software\PIC-LCD3310_TEST_DEMO\main.c 224 : suspicious pointer conversion
Warning[2054] C:\Documents and Settings\user\Desktop\PIC-LCD3310_test\Software\PIC-LCD3310_TEST_DEMO\main.c 226 : suspicious pointer conversion
Warning[2054] C:\Documents and Settings\user\Desktop\PIC-LCD3310_test\Software\PIC-LCD3310_TEST_DEMO\main.c 231 : suspicious pointer conversion
Warning[2058] C:\Documents and Settings\user\Desktop\PIC-LCD3310_test\Software\PIC-LCD3310_TEST_DEMO\main.c 234 : call of function without prototype
Warning[2058] C:\Documents and Settings\user\Desktop\PIC-LCD3310_test\Software\PIC-LCD3310_TEST_DEMO\main.c 237 : call of function without prototype
Warning[2054] C:\Documents and Settings\user\Desktop\PIC-LCD3310_test\Software\PIC-LCD3310_TEST_DEMO\main.c 350 : suspicious pointer conversion
Warning[2066] C:\Documents and Settings\user\Desktop\PIC-LCD3310_test\Software\PIC-LCD3310_TEST_DEMO\main.c 350 : type qualifier mismatch in assignment
Warning[2058] C:\Documents and Settings\user\Desktop\PIC-LCD3310_test\Software\PIC-LCD3310_TEST_DEMO\main.c 351 : call of function without prototype
Warning[2054] C:\Documents and Settings\user\Desktop\PIC-LCD3310_test\Software\PIC-LCD3310_TEST_DEMO\main.c 383 : suspicious pointer conversion
Warning[2066] C:\Documents and Settings\user\Desktop\PIC-LCD3310_test\Software\PIC-LCD3310_TEST_DEMO\main.c 383 : type qualifier mismatch in assignment
Warning[2058] C:\Documents and Settings\user\Desktop\PIC-LCD3310_test\Software\PIC-LCD3310_TEST_DEMO\main.c 384 : call of function without prototype
Warning[2054] C:\Documents and Settings\user\Desktop\PIC-LCD3310_test\Software\PIC-LCD3310_TEST_DEMO\main.c 415 : suspicious pointer conversion
Warning[2066] C:\Documents and Settings\user\Desktop\PIC-LCD3310_test\Software\PIC-LCD3310_TEST_DEMO\main.c 415 : type qualifier mismatch in assignment
Warning[2058] C:\Documents and Settings\user\Desktop\PIC-LCD3310_test\Software\PIC-LCD3310_TEST_DEMO\main.c 416 : call of function without prototype
Warning[2058] C:\Documents and Settings\user\Desktop\PIC-LCD3310_test\Software\PIC-LCD3310_TEST_DEMO\main.c 596 : call of function without prototype
Warning[2058] C:\Documents and Settings\user\Desktop\PIC-LCD3310_test\Software\PIC-LCD3310_TEST_DEMO\main.c 597 : call of function without prototype
Warning[2058] C:\Documents and Settings\user\Desktop\PIC-LCD3310_test\Software\PIC-LCD3310_TEST_DEMO\main.c 598 : call of function without prototype
Warning[2058] C:\Documents and Settings\user\Desktop\PIC-LCD3310_test\Software\PIC-LCD3310_TEST_DEMO\main.c 599 : call of function without prototype
Warning[2058] C:\Documents and Settings\user\Desktop\PIC-LCD3310_test\Software\PIC-LCD3310_TEST_DEMO\main.c 600 : call of function without prototype
Warning[2058] C:\Documents and Settings\user\Desktop\PIC-LCD3310_test\Software\PIC-LCD3310_TEST_DEMO\main.c 601 : call of function without prototype
Warning[2058] C:\Documents and Settings\user\Desktop\PIC-LCD3310_test\Software\PIC-LCD3310_TEST_DEMO\main.c 714 : call of function without prototype
Warning[2058] C:\Documents and Settings\user\Desktop\PIC-LCD3310_test\Software\PIC-LCD3310_TEST_DEMO\main.c 715 : call of function without prototype
Warning[2058] C:\Documents and Settings\user\Desktop\PIC-LCD3310_test\Software\PIC-LCD3310_TEST_DEMO\main.c 717 : call of function without prototype
Warning[2058] C:\Documents and Settings\user\Desktop\PIC-LCD3310_test\Software\PIC-LCD3310_TEST_DEMO\main.c 719 : call of function without prototype
Warning[2058] C:\Documents and Settings\user\Desktop\PIC-LCD3310_test\Software\PIC-LCD3310_TEST_DEMO\main.c 734 : call of function without prototype
Warning[2058] C:\Documents and Settings\user\Desktop\PIC-LCD3310_test\Software\PIC-LCD3310_TEST_DEMO\main.c 735 : call of function without prototype
Warning[2058] C:\Documents and Settings\user\Desktop\PIC-LCD3310_test\Software\PIC-LCD3310_TEST_DEMO\main.c 737 : call of function without prototype
Warning[2058] C:\Documents and Settings\user\Desktop\PIC-LCD3310_test\Software\PIC-LCD3310_TEST_DEMO\main.c 739 : call of function without prototype
Warning[2058] C:\Documents and Settings\user\Desktop\PIC-LCD3310_test\Software\PIC-LCD3310_TEST_DEMO\main.c 756 : call of function without prototype
Warning[2058] C:\Documents and Settings\user\Desktop\PIC-LCD3310_test\Software\PIC-LCD3310_TEST_DEMO\main.c 767 : call of function without prototype
Warning[2058] C:\Documents and Settings\user\Desktop\PIC-LCD3310_test\Software\PIC-LCD3310_TEST_DEMO\main.c 782 : call of function without prototype
Warning[2058] C:\Documents and Settings\user\Desktop\PIC-LCD3310_test\Software\PIC-LCD3310_TEST_DEMO\main.c 789 : call of function without prototype
Warning[2058] C:\Documents and Settings\user\Desktop\PIC-LCD3310_test\Software\PIC-LCD3310_TEST_DEMO\main.c 802 : call of function without prototype
Warning[2058] C:\Documents and Settings\user\Desktop\PIC-LCD3310_test\Software\PIC-LCD3310_TEST_DEMO\main.c 819 : call of function without prototype
Warning[2058] C:\Documents and Settings\user\Desktop\PIC-LCD3310_test\Software\PIC-LCD3310_TEST_DEMO\main.c 826 : call of function without prototype
Warning[2058] C:\Documents and Settings\user\Desktop\PIC-LCD3310_test\Software\PIC-LCD3310_TEST_DEMO\main.c 842 : call of function without prototype
