G04 #@! TF.FileFunction,Paste,Top*
%FSLAX46Y46*%
G04 Gerber Fmt 4.6, Leading zero omitted, Abs format (unit mm)*
G04 Created by KiCad (PCBNEW 0.201603210401+6634~43~ubuntu14.04.1-product) date Wed 30 Mar 2016 12:31:06 PM CEST*
%MOMM*%
G01*
G04 APERTURE LIST*
%ADD10C,0.100000*%
%ADD11R,3.657600X2.032000*%
%ADD12R,1.016000X2.032000*%
%ADD13R,1.250000X1.000000*%
%ADD14R,1.600000X1.000000*%
%ADD15R,1.198880X1.198880*%
%ADD16R,2.301240X0.500380*%
%ADD17R,2.499360X1.998980*%
%ADD18R,1.500000X1.300000*%
%ADD19R,1.300000X1.500000*%
%ADD20R,1.600000X2.180000*%
%ADD21R,5.600700X2.100580*%
%ADD22R,2.000000X0.600000*%
G04 APERTURE END LIST*
D10*
D11*
X48895000Y-134493000D03*
D12*
X48895000Y-141097000D03*
X51181000Y-141097000D03*
X46609000Y-141097000D03*
D13*
X64135000Y-141335000D03*
X64135000Y-139335000D03*
X73025000Y-141335000D03*
X73025000Y-139335000D03*
D14*
X52070000Y-148185000D03*
X52070000Y-145185000D03*
X52070000Y-128675000D03*
X52070000Y-131675000D03*
D15*
X59469020Y-146050000D03*
X57370980Y-146050000D03*
X48895000Y-145635980D03*
X48895000Y-147734020D03*
X48895000Y-129125980D03*
X48895000Y-131224020D03*
D16*
X51709320Y-154609800D03*
X51709320Y-155409900D03*
X51709320Y-156210000D03*
X51709320Y-157010100D03*
X51709320Y-157810200D03*
D17*
X51610260Y-151759920D03*
X46111160Y-151759920D03*
X51610260Y-160660080D03*
X46111160Y-160660080D03*
D18*
X59770000Y-143510000D03*
X57070000Y-143510000D03*
X59770000Y-148590000D03*
X57070000Y-148590000D03*
D19*
X45720000Y-145335000D03*
X45720000Y-148035000D03*
D18*
X72470000Y-130810000D03*
X69770000Y-130810000D03*
D19*
X45720000Y-128825000D03*
X45720000Y-131525000D03*
D20*
X58417680Y-160812430D03*
X58422320Y-151607570D03*
D21*
X63731140Y-135890000D03*
X73428860Y-135890000D03*
D22*
X63880000Y-144145000D03*
X63880000Y-145415000D03*
X63880000Y-146685000D03*
X63880000Y-147955000D03*
X63880000Y-149225000D03*
X63880000Y-150495000D03*
X63880000Y-151765000D03*
X63880000Y-153035000D03*
X63880000Y-154305000D03*
X63880000Y-155575000D03*
X63880000Y-156845000D03*
X63880000Y-158115000D03*
X63880000Y-159385000D03*
X63880000Y-160655000D03*
X73280000Y-160655000D03*
X73280000Y-159385000D03*
X73280000Y-158115000D03*
X73280000Y-156845000D03*
X73280000Y-155575000D03*
X73280000Y-154305000D03*
X73280000Y-153035000D03*
X73280000Y-151765000D03*
X73280000Y-150495000D03*
X73280000Y-149225000D03*
X73280000Y-147955000D03*
X73280000Y-146685000D03*
X73280000Y-145415000D03*
X73280000Y-144145000D03*
M02*
